…
`viaf_get()` returns a tibble, where each row contains information about the respective VIAF identifier, whereas `viaf_search()` and `viaf_suggest()` each produce a named list of tibbles, with each tibble containing information about the respective search query. The MARC 21 field definitions are used.

``` r
library(viafr)

(result <- viaf_get("15873"))
#> # A tibble: 1 x 4
#>   viaf_id source_ids        name_type      text              
#>   <chr>   <list>            <chr>          <list>            
#> 1 15873   <tibble [43 x 3]> Personal Names <tibble [309 x 7]>

result$source_ids[1]
#> [[1]]
#> # A tibble: 43 x 3
#>    id              scheme name                                             
#>    <chr>           <chr>  <chr>                                            
#>  1 vtls000130420   RERO   RERO - Library Network of Western Switzerland    
#>  2 vtls002657273   EGAXA  Library of Alexandria                            
#>  3 9658            PTBNP  National Library of Portugal                     
#>  4 a10443824       BNC    National Library of Catalonia                    
#>  5 jn19990006541   NKC    National Library of the Czech Republic           
#>  6 LNC10-000029604 LNB    National Library of Latvia                       
#>  7 500009666       JPG    Union List of Artist Names [Getty Research Insti~
#>  8 a11549853       ERRR   National Library of Estonia                      
#>  9 XX1637941       BNE    National Library of Spain                        
#> 10 00452768        NDL    National Diet Library                            
#> # ... with 33 more rows

result$text[1]
#> [[1]]
#> # A tibble: 309 x 7
#> # Groups:   id [309]
#>       id a                      b     d        e     f                `4`  
#>    <int> <chr>                  <chr> <chr>    <chr> <chr>            <chr>
#>  1     1 Pablo Picasso          <NA>  <NA>     <NA>  <NA>             <NA> 
#>  2     2 Picasso Ruiz, Pablo    <NA>  1881-19~ <NA>  <NA>             <NA> 
#>  3     3 Picasso Ruiz, Pablo    <NA>  1881-19~ <NA>  <NA>             <NA> 
#>  4     4 Picasso Ruiz, Pablo, ~ Pablo 1881-19~ <NA>  1881-1973        <NA> 
#>  5     5 Picasso Ruiz, Pablo, ~ Pablo 1881-19~ <NA>  1881-1973, 1881~ <NA> 
#>  6     6 Pablo Picasso          <NA>  <NA>     <NA>  <NA>             <NA> 
#>  7     7 Pablo Picasso          <NA>  <NA>     <NA>  <NA>             <NA> 
#>  8     8 Pablo Picasso          <NA>  <NA>     <NA>  <NA>             <NA> 
#>  9     9 Pablo Picasso          <NA>  <NA>     <NA>  <NA>             <NA> 
#> 10    10 Picasso Ruiz, Pablo    <NA>  1881-19~ <NA>  <NA>             <NA> 
#> # ... with 299 more rows
…
